[gd_scene load_steps=3 format=2]

[ext_resource path="res://cloud_1.png" type="Texture" id=1]
[ext_resource path="res://Cloud.gd" type="Script" id=2]

[node name="Cloud" type="Sprite"]
scale = Vector2( 4, 3 )
z_index = -50
texture = ExtResource( 1 )
script = ExtResource( 2 )

[node name="VisibilityNotifier2D" type="VisibilityNotifier2D" parent="."]
[connection signal="screen_exited" from="VisibilityNotifier2D" to="." method="_on_VisibilityNotifier2D_screen_exited"]
